{
  "project_info": {
    "project_number": "19942998261",
    "firebase_url": "https://cse438-project3mrounds.firebaseio.com",
    "project_id": "cse438-project3mrounds",
    "storage_bucket": "cse438-project3mrounds.appspot.com"
  },
  "client": [
    {
      "client_info": {
        "mobilesdk_app_id": "1:19942998261:android:79fe6ae0561209d4",
        "android_client_info": {
          "package_name": "com.example.cse438.blackjack"
        }
      },
      "oauth_client": [
        {
          "client_id": "19942998261-dss211ijg9of8ojoo1ehudog2nj4p283.apps.googleusercontent.com",
          "client_type": 1,
          "android_info": {
            "package_name": "com.example.cse438.blackjack",
            "certificate_hash": "15d9b9e787480eb846619c8e69b557384be4108b"
          }
        },
        {
          "client_id": "19942998261-quqbdqqsqoos5uoji5ueseal5rt66o7d.apps.googleusercontent.com",
          "client_type": 3
        }
      ],
      "api_key": [
        {
          "current_key": "AIzaSyCo2Jzk9dWchmvH7hs6xQLm6s2j9Slx5co"
        }
      ],
      "services": {
        "analytics_service": {
          "status": 1
        },
        "appinvite_service": {
          "status": 2,
          "other_platform_oauth_client": [
            {
              "client_id": "19942998261-quqbdqqsqoos5uoji5ueseal5rt66o7d.apps.googleusercontent.com",
              "client_type": 3
            }
          ]
        },
        "ads_service": {
          "status": 2
        }
      }
    }
  ],
  "configuration_version": "1"
}